{
  "project_info": {
    "project_number": "102568913153",
    "firebase_url": "https://gaadi360-partner-a6043.firebaseio.com",
    "project_id": "gaadi360-partner-a6043",
    "storage_bucket": "gaadi360-partner-a6043.appspot.com"
  },
  "client": [
    {
      "client_info": {
        "mobilesdk_app_id": "1:102568913153:android:07c913db8577a7a5c11300",
        "android_client_info": {
          "package_name": "in.gaadi360.partner"
        }
      },
      "oauth_client": [
        {
          "client_id": "102568913153-b6i289f53vudqe4m0s2u2qmolbin907h.apps.googleusercontent.com",
          "client_type": 3
        }
      ],
      "api_key": [
        {
          "current_key": "AIzaSyDLUBURhQPgjK9KOMW1u6_h1-Yvx72FjjA"
        }
      ],
      "services": {
        "appinvite_service": {
          "other_platform_oauth_client": [
            {
              "client_id": "102568913153-b6i289f53vudqe4m0s2u2qmolbin907h.apps.googleusercontent.com",
              "client_type": 3
            }
          ]
        }
      }
    }
  ],
  "configuration_version": "1"
}